{
  "page": 1,
  "total_results": 916,
  "total_pages": 46,
  "results": [
    {
      "vote_count": 171,
      "id": 9090,
      "video": false,
      "vote_average": 6.7,
      "title": "To Wong Foo, Thanks for Everything! Julie Newmar",
      "popularity": 7.983,
      "poster_path": "/xIDEoG9FQGmMCh5XsbkvSuD8WrW.jpg",
      "original_language": "en",
      "original_title": "To Wong Foo, Thanks for Everything! Julie Newmar",
      "genre_ids": [
        35
      ],
      "backdrop_path": "/cDl271jLuysm3Oe6LAzpQ2ZVHw5.jpg",
      "adult": false,
      "overview": "Three New York drag queens on their way to Hollywood for a beauty pageant get stranded in a small Midwestern town for the entire weekend when their car breaks down. While waiting for parts for their Cadillac convertible, the flamboyant trio shows the local homophobic rednecks that appearing different doesn't mean they don't have humanity in common.",
      "release_date": "1995-09-07"
    },
    {
      "vote_count": 41,
      "id": 61488,
      "video": false,
      "vote_average": 7.5,
      "title": "Foo Fighters: Back and Forth",
      "popularity": 1.792,
      "poster_path": "/s0gtjFClqcydcLrLxTeSeLM0Tw9.jpg",
      "original_language": "en",
      "original_title": "Foo Fighters: Back and Forth",
      "genre_ids": [
        10402,
        99
      ],
      "backdrop_path": "/460wZv5WotUSa9PVjmd6RVlPaWK.jpg",
      "adult": false,
      "overview": "FOO FIGHTERS BACK AND FORTH chronicles the 16 year history of the Foo Fighters: from the band's very first songs created as cassette demos Dave Grohl recorded during his tenure as Nirvana's drummer, through its ascent to their Grammy-winning, multi-platinum, arena and stadium headlining status as one of the biggest rock bands on the planet.",
      "release_date": "2011-04-05"
    },
    {
      "vote_count": 13,
      "id": 22258,
      "video": false,
      "vote_average": 8.3,
      "title": "Foo Fighters: Live at Wembley Stadium",
      "popularity": 1.421,
      "poster_path": "/c6GaS13FW15oQwf0VFMZ2V59Zcq.jpg",
      "original_language": "en",
      "original_title": "Foo Fighters: Live at Wembley Stadium",
      "genre_ids": [
        10402
      ],
      "backdrop_path": "/pX6H4Yon81nxh14ZnVQDixO66eK.jpg",
      "adult": false,
      "overview": "Foo Fighters captured over their two sold-out nights at Wembley on June 6th and 7th 2008.",
      "release_date": "2008-08-25"
    },
    {
      "vote_count": 3,
      "id": 281921,
      "video": false,
      "vote_average": 5.2,
      "title": "Foo-Foo Dust",
      "popularity": 0.339,
      "poster_path": "/jMLtEFhRuK1OwYaJ1F3eBWn2EvN.jpg",
      "original_language": "en",
      "original_title": "Foo-Foo Dust",
      "genre_ids": [
        99
      ],
      "backdrop_path": "/2WHLrBf2iGYTG5JyANH0iLUwklj.jpg",
      "adult": false,
      "overview": "This less-than-feature-length documentary chronicles the endless cycle of addiction perpetrated by a mother and son living in a squalid tenement in San Francisco. 22-year-old Ryan and his mother Stephanie are both drug addicts: Although he'll take whatever comes along, her substance of choice is crack cocaine, and she demands that her son provide her with some. As they navigate their respective addictions, each comes close to overdosing just before they're evicted from their apartment.",
      "release_date": "2003-06-19"
    },
    {
      "vote_count": 746,
      "id": 1788,
      "video": false,
      "vote_average": 6.5,
      "title": "Footloose",
      "popularity": 8.883,
      "poster_path": "/79iEen28ai1rsXvOVWRJuHrsexO.jpg",
      "original_language": "en",
      "original_title": "Footloose",
      "genre_ids": [
        18,
        10749
      ],
      "backdrop_path": "/dDEp1zu7ivhUgMGo0JmW0HjbbTM.jpg",
      "adult": false,
      "overview": "When teenager Ren and his family move from big-city Chicago to a small town in the West, he's in for a real case of culture shock.",
      "release_date": "1984-02-17"
    },
    {
      "vote_count": 695,
      "id": 68817,
      "video": false,
      "vote_average": 6.4,
      "title": "Footloose",
      "popularity": 6.701,
      "poster_path": "/kDpo6G7rYRHQ1bFhyLiJEW9ESPO.jpg",
      "original_language": "en",
      "original_title": "Footloose",
      "genre_ids": [
        18,
        10402,
        10749
      ],
      "backdrop_path": "/8CwwZnXIJ8UOB2EqTIRtWBGAiiX.jpg",
      "adult": false,
      "overview": "Ren MacCormack is transplanted from Boston to the small southern town of Bomont where loud music and dancing are prohibited. Not one to bow to the status quo, Ren challenges the ban, revitalizing the town and falling in love with the minister’s troubled daughter Ariel in the process.",
      "release_date": "2011-10-06"
    },
    {
      "vote_count": 1,
      "id": 344588,
      "video": false,
      "vote_average": 10,
      "title": "Foo Fighters - Rock am Ring 2015",
      "popularity": 0.51,
      "poster_path": "/n6ApZW2HxWnZkNOJNvgtp0F7owS.jpg",
      "original_language": "en",
      "original_title": "Foo Fighters - Rock am Ring 2015",
      "genre_ids": [
        10402
      ],
      "backdrop_path": "/o5ybO8BnSFf8yxR2tGaqbLuALAE.jpg",
      "adult": false,
      "overview": "Foo Fighters - Rock am Ring 2015",
      "release_date": "2015-06-07"
    },
    {
      "vote_count": 5,
      "id": 62944,
      "video": false,
      "vote_average": 6.9,
      "title": "Foo Fighters: Hyde Park",
      "popularity": 0.308,
      "poster_path": "/un93puxVOu3DA4ePAXAfUEr1TRR.jpg",
      "original_language": "en",
      "original_title": "Foo Fighters: Hyde Park",
      "genre_ids": [
        10402
      ],
      "backdrop_path": "/qBQlhYaFvuldQuJuuI4NCCP5MV7.jpg",
      "adult": false,
      "overview": "Recorded at Hyde Park in London, June 17th 2006, this 76 minute performance sees the Foo Fighters rock through some of their most popular material in front of a massive crowd, quoted in some media as nearly 100,000 people. At the time of this show, the band were touring in support of their excellent double album, In Your Honor. There have been a number of different members come and go in this band, however their current line-up has been the most stable.",
      "release_date": "2006-12-04"
    },
    {
      "vote_count": 68,
      "id": 14527,
      "video": false,
      "vote_average": 6.3,
      "title": "Foolproof",
      "popularity": 3.883,
      "poster_path": "/mbaRnxMepx0FatyyXa2Fljc8wK3.jpg",
      "original_language": "en",
      "original_title": "Foolproof",
      "genre_ids": [
        28
      ],
      "backdrop_path": "/mR70qt8hXrZYMRGfl9joLY9Chx3.jpg",
      "adult": false,
      "overview": "Kevin, Sam and Rob have an unusual hobby: planning foolproof heists, without intending to actually perform them. The game goes wrong when their latest plan is stolen and carried out. Things get even worse when a mysterious man approaches them with an offer: plan a heist for him, or go to jail. As the clock ticks, they find that the risk might be higher than just their freedom.",
      "release_date": "2003-10-03"
    },
    {
      "vote_count": 34,
      "id": 116977,
      "video": false,
      "vote_average": 2.2,
      "title": "Foodfight!",
      "popularity": 3.843,
      "poster_path": "/R1zn75Yz4wpdd85byqhP7mT6No.jpg",
      "original_language": "en",
      "original_title": "Foodfight!",
      "genre_ids": [
        16,
        28,
        35,
        10751
      ],
      "backdrop_path": "/rKwNuwZ3pdlR68iMAk0T9ofvWjI.jpg",
      "adult": false,
      "overview": "Dex, a superdog sleuth, is the law of the land when the world's most recognized brands take on the forces of evil and the devilish Brand X.",
      "release_date": "2012-06-15"
    },
    {
      "vote_count": 8,
      "id": 21114,
      "video": false,
      "vote_average": 8,
      "title": "Foo Fighters: Skin and Bones",
      "popularity": 0.335,
      "poster_path": "/AaOvvlSbWSneLtgt0jwvvUDMFn9.jpg",
      "original_language": "en",
      "original_title": "Foo Fighters: Skin and Bones",
      "genre_ids": [
        10402
      ],
      "backdrop_path": "/9a4pnwvP9ChQlxRbY0bEXBxHAvt.jpg",
      "adult": false,
      "overview": "Skin and Bones is a live acoustic album by the Foo Fighters released on November 7, 2006. The 15-track set was recorded in late August 2006 at the Pantages Theater in Los Angeles and spotlights an expanded eight-piece lineup featuring violinist/singer Petra Haden, former Germs/Nirvana/Foo Fighters guitarist Pat Smear, Wallflowers keyboardist Rami Jaffee, and percussionist Drew Hester.",
      "release_date": "2006-11-28"
    },
    {
      "vote_count": 3,
      "id": 25337,
      "video": false,
      "vote_average": 8.3,
      "title": "Foo Fighters: Everywhere But Home",
      "popularity": 0.293,
      "poster_path": "/iNr7kEWNk7hkBrEQEHcL8Fq1Bsw.jpg",
      "original_language": "en",
      "original_title": "Foo Fighters: Everywhere But Home",
      "genre_ids": [
        10402
      ],
      "backdrop_path": "/zk5yLGuchaDRCc5yc4GUS5DxZZx.jpg",
      "adult": false,
      "overview": "Foo Fighters have established themselves as a premier alternative rock band, offering a mixture of bittersweet harmonies and full-on rock anthems. Their formidable live act is second to none, and EVERYWHERE BUT HOME cements their reputation with a combination of stadium shows, festival appearances, and intimate acoustic performances. Endearing behind the scenes footage illustrates the goofy nature",
      "release_date": "2003-11-25"
    },
    {
      "vote_count": 630,
      "id": 8676,
      "video": false,
      "vote_average": 5.5,
      "title": "Fool's Gold",
      "popularity": 7.069,
      "poster_path": "/a7tdONvVEUVaQINVLEJ6QwuFOFz.jpg",
      "original_language": "en",
      "original_title": "Fool's Gold",
      "genre_ids": [
        10749,
        35,
        12
      ],
      "backdrop_path": "/YKUNjQNJMS0vJEVWt5gunW7UDY.jpg",
      "adult": false,
      "overview": "Treasure hunter Ben \"Finn\" Finnegan has sunk his marriage to Tess and his trusty boat in his obsessive quest to find the legendary Queen's Dowry. When he finds a vital clue that may finally pinpoint the treasure's whereabouts, he drags Tess and her boss, billionaire Nigel Honeycutt, along on the hunt. But Finn is not the only one interested in the gold; his former mentor-turned-enemy Moe Fitch will stop at nothing to beat him to it.",
      "release_date": "2008-02-07"
    },
    {
      "vote_count": 284,
      "id": 18570,
      "video": false,
      "vote_average": 7.4,
      "title": "Food, Inc.",
      "popularity": 5.046,
      "poster_path": "/gWYCM3YVYwZQcpfye6biAlPy9Xt.jpg",
      "original_language": "en",
      "original_title": "Food, Inc.",
      "genre_ids": [
        99
      ],
      "backdrop_path": "/npq6sSmWFWulvKNdQaTkpxbSWW4.jpg",
      "adult": false,
      "overview": "Documentary filmmaker Robert Kenner examines how mammoth corporations have taken over all aspects of the food chain in the United States, from the farms where our food is grown to the chain restaurants and supermarkets where it's sold. Narrated by author and activist Eric Schlosser, the film features interviews with average Americans about their dietary habits, commentary from food experts like Michael Pollan and unsettling footage shot inside large-scale animal processing plants.",
      "release_date": "2008-09-07"
    },
    {
      "vote_count": 82,
      "id": 11593,
      "video": false,
      "vote_average": 6.9,
      "title": "Nobody's Fool",
      "popularity": 4.565,
      "poster_path": "/3mbJyBFsryL6wcSuEwHXvpzdOYa.jpg",
      "original_language": "en",
      "original_title": "Nobody's Fool",
      "genre_ids": [
        18,
        35
      ],
      "backdrop_path": "/spgT4i6EMUkToYN337QFpAUOZmq.jpg",
      "adult": false,
      "overview": "Sully is a rascally ne'er-do-well approaching retirement age. While he is pressing a worker's compensation suit for a bad knee, he secretly works for his nemesis, Carl, and flirts with Carl's young wife Toby. Sully's long- forgotten son and family have moved back to town, so Sully faces unfamiliar family responsibilities. Meanwhile, Sully's landlady's banker son plots to push through a new development and evict Sully from his mother's life.",
      "release_date": "1994-12-23"
    },
    {
      "vote_count": 1,
      "id": 466096,
      "video": false,
      "vote_average": 1,
      "title": "Foo Fighters at Glastonbury 2017",
      "popularity": 0.146,
      "poster_path": "/8VFEncr0z6G9FXZYRLI6cMkF1RB.jpg",
      "original_language": "en",
      "original_title": "Foo Fighters at Glastonbury 2017",
      "genre_ids": [],
      "backdrop_path": "/rBSqrvj7SlM8g0MpK2NfoeT3xy9.jpg",
      "adult": false,
      "overview": "Foo Fighters at Glastonbury 2017",
      "release_date": "2017-06-23"
    },
    {
      "vote_count": 30,
      "id": 505175,
      "video": false,
      "vote_average": 6.5,
      "title": "Love per Square Foot",
      "popularity": 7.23,
      "poster_path": "/ox0tD3K6WjLItgAMGFqt7oYaNUH.jpg",
      "original_language": "en",
      "original_title": "Love per Square Foot",
      "genre_ids": [
        35,
        10749
      ],
      "backdrop_path": "/vhqkNZPc2yCaKSFBkPlELg5HYYM.jpg",
      "adult": false,
      "overview": "Individually, bank employees Sanjay and Karina don't earn enough to be able to buy a home, so they decide to enter into a marriage of convenience.",
      "release_date": "2018-02-14"
    },
    {
      "vote_count": 102,
      "id": 13054,
      "video": false,
      "vote_average": 6.6,
      "title": "Rise of the Footsoldier",
      "popularity": 6.878,
      "poster_path": "/iPJdTZ9pe7fjo4rB6YgsLDLOgO6.jpg",
      "original_language": "en",
      "original_title": "Rise of the Footsoldier",
      "genre_ids": [
        28,
        12,
        80,
        18,
        53
      ],
      "backdrop_path": "/xkjeG2Iv9sX88uNvk4pNipBPx6i.jpg",
      "adult": false,
      "overview": "Rise of the Footsoldier follows the inexorable rise of Carlton Leach from one of the most feared generals of the football terraces to becoming a member of a notorious gang of criminals who rampaged their way through London and Essex in the late eighties and early nineties.",
      "release_date": "2007-09-07"
    },
    {
      "vote_count": 237,
      "id": 472424,
      "video": false,
      "vote_average": 7.8,
      "title": "Gaga: Five Foot Two",
      "popularity": 6.305,
      "poster_path": "/g0NONcnzzvWoASFjFoDqXZUW6SV.jpg",
      "original_language": "en",
      "original_title": "Gaga: Five Foot Two",
      "genre_ids": [
        99,
        10402
      ],
      "backdrop_path": "/lc2AI7UHqLgp9VkY91BgfUonYY8.jpg",
      "adult": false,
      "overview": "Go behind the scenes with pop provocateur Lady Gaga as she releases a bold new album and prepares for her Super Bowl halftime show.",
      "release_date": "2017-09-08"
    },
    {
      "vote_count": 101,
      "id": 24913,
      "video": false,
      "vote_average": 5.7,
      "title": "April Fool's Day",
      "popularity": 4.961,
      "poster_path": "/FiDprIXcWbAPz4sB3vYjxSjHrU.jpg",
      "original_language": "en",
      "original_title": "April Fool's Day",
      "genre_ids": [
        27,
        9648
      ],
      "backdrop_path": "/vPDr6U0NbDhlpOFnDh5EjplDcfS.jpg",
      "adult": false,
      "overview": "A group of eight college friends gather together at an island mansion belonging to heiress Muffy St. John to celebrate their final year of school. They soon discover that each has a hidden secret from their past which is revealed, and soon after, they turn up dead.",
      "release_date": "1986-03-27"
    }
  ]
}